Extract the most intense MS/MS scan — extract_MS2 • MS2extract
…
#> # A tibble: 6,226 × 6
#> # Groups:   Formula, CE [1]
#>       mz intensity mz_precursor    rt    CE Formula  
#>    <dbl>     <dbl>        <dbl> <dbl> <dbl> <chr>    
#>  1  100.      40.1         575.  171.    20 C30H24O12
#>  2  100.      23.3         575.  171.    20 C30H24O12
#>  3  100.      15.8         575.  171.    20 C30H24O12
#>  4  101.     255.          575.  171.    20 C30H24O12
#>  5  101.      11           575.  171.    20 C30H24O12
#>  6  102.      91.5         575.  171.    20 C30H24O12
#>  7  103.       9           575.  171.    20 C30H24O12
#>  8  104.      21.2         575.  171.    20 C30H24O12
#>  9  104.      91.1         575.  171.    20 C30H24O12
#> 10  104.      14.7         575.  171.    20 C30H24O12
#> # ℹ 6,216 more rows
…
#> # A tibble: 6,226 × 6
#> # Groups:   Formula, CE [1]
#>       mz intensity mz_precursor    rt    CE Formula  
#>    <dbl>     <dbl>        <dbl> <dbl> <dbl> <chr>    
#>  1  100.      40.1         575.  171.    20 C30H24O12
#>  2  100.      23.3         575.  171.    20 C30H24O12
#>  3  100.      15.8         575.  171.    20 C30H24O12
#>  4  101.     255.          575.  171.    20 C30H24O12
#>  5  101.      11           575.  171.    20 C30H24O12
#>  6  102.      91.5         575.  171.    20 C30H24O12
#>  7  103.       9           575.  171.    20 C30H24O12
#>  8  104.      21.2         575.  171.    20 C30H24O12
#>  9  104.      91.1         575.  171.    20 C30H24O12
#> 10  104.      14.7         575.  171.    20 C30H24O12
#> # ℹ 6,216 more rows
…
